{
  "images" : [
    {
      "idiom" : "universal",
      "filename" : "09d0dd0ea804c59ea4eb7d3f881c123b.jpg",
      "scale" : "1x"
    },
    {
      "idiom" : "universal",
      "scale" : "2x"
    },
    {
      "idiom" : "universal",
      "scale" : "3x"
    }
  ],
  "info" : {
    "version" : 1,
    "author" : "xcode"
  }
}